ń má mɛ́n dɛ	mais je ne comprends pas
kúma dɔ́ɔɲi dɔ́ɔni	parle lentement
í lɔ̀ í lɔ́	arrête, attends.
í bé jùlakan fɔ́ wà?	est-ce que tu parles le dioula?
ɔǹhɔ́n ń bé jùlakan fɔ́ dɔ́ɔni	oui je parle un peu.
sábali, ń má mɛ́n kɔ́sɔɓɛ	
