opt,Asif,(heads/master),,
opt,coc.nvim,(v0.0.79-131-gc9041340),,
opt,goyo.vim,(1.6.0-37-ga865dec),,
opt,nord-vim,(v0.7.0-94-gea7ff9c),Look,Nice theme
opt,translate.vim,(v0.0.3-5-gda98838),Writing,not using currently
opt,unicode.vim,(v20-137-g631c085),Writing/Code,Don't often use but when I do its very practical
opt,vim-airline-themes,(remotes/origin/HEAD),Look,Theme collection
opt,vim-asciidoc,(heads/master),,
opt,vim-asciidoc-folding,(heads/master),Writing,Folding support for asciidoc
opt,vim-colors-solarized,(heads/master),Look,Why do I have this?
opt,vim-epub,(heads/master),Writing,Requires python2 -- pretty well useless
opt,vim-pencil,(v1.5-18-gdad5a36),Write,Config for writers; causing me issues with gq 
opt,vim-sensible,(v1.2-12-g2d9f34c),,Used for a long time but not sure if needed now
opt,vim-snippets,(heads/master),,I am using ultisnips.  Do I need this?
opt,vim-templates,(1.1-6-gc3e51bb),,Tried this but maybe bash skeletons are enough
opt,vimple,(heads/master),,Provided me with spell check window; need to find replacement
opt,vimtex,(v2.1-13-g83f4b63d),,tex support for sentimental reasons
opt,vviki,(v1.0.0),,vimwiki for adoc.   Nice but not supported by other newer note taking stuff
start,NrrwRgn,(0.33-119-g82a0fc6),,
start,VimRegStyle,(heads/master),,
start,bclose.vim,(heads/master),,
start,calendar.vim,(remotes/origin/HEAD),org,not sure if this is really necessary
start,completion-buffers,(heads/master),,
start,completion-nvim,(remotes/origin/HEAD),,
start,csv.vim,(remotes/origin/HEAD),,
start,firenvim,(v0.1.32-31-g773f50d),,
start,fzf.vim,(remotes/origin/HEAD),,
start,iceberg.vim,(1.0-99-g203d568),,
start,limelight.vim,(remotes/origin/HEAD),,Write
start,nvim-lsp,(remotes/origin/HEAD),,language server suppoert
start,nvim-lspconfig,(remotes/origin/HEAD),,language server client configs
start,ranger.vim,(3.0-24-g91e82de),,Awesome file manager
start,syntastic,(3.10.0-21-g63741646),,
start,tagbar,(v2.7-195-gb63e8cb),,
start,taglist.vim,(4.5),,
start,tmuxline.vim,(v1.0-20-g7001ab3),,
start,ultisnips,(3.2-43-gc270950),,
start,utl.vim,(3.0a-ALPHA),org,linking in org-mode
start,vim-LanguageTool,(heads/master),,
start,vim-SyntaxRange,(1.03-7-g6023164),,
start,vim-airline,(v0.11-323-gf39208f),,
start,vim-asciidoctor,(remotes/origin/HEAD),,
start,vim-colors-pencil,(v1.0-13-gfcbdca1),Writing,Nice macish theme for writing
start,vim-fugitive,(v3.2-115-gbebe504),Core,Git functionality
start,vim-go,(v1.24-154-g2855115e),Core,go support; helps for hugo templates
start,vim-kickstart,(20100210-17-gda48493),Core,Funny that Fedora doesn't include this by default
start,vim-ledger,(v1.2.0-53-g5329793),Apps,My accounting program
start,vim-lexical,(v1.1-9-g0898c0c),,
start,vim-matchup,(v0.5.0-29-g24407e2),,
start,vim-mustache-handlebars,(heads/master),Web,Syntax with antora hbs files
start,vim-mutton,(heads/devel),Write,Clean screen for writing; my hacked version
start,vim-orgmode,(v0.6.0-34-gb7bce17),Write,Not using orgmode right now but for sentimentality its in start
start,vim-repeat,(v1.2-8-gc947ad2),,
start,vim-rooter,(remotes/origin/HEAD),Core,Needed for my translation and other stuff
start,vim-speeddating,(v20151024-5-gfe98cfa),,Check if I need maybe ultisnips and autocomplete does what I need
start,vim-surround,(v2.1-18-gf51a26d),,Editing html and other tagged stuff
start,vim-textobj-quote,(v1.0-8-g679719a),,
start,vim-textobj-user,(0.7.6-3-g41a675d),,
start,vim-tmux-navigator,(v1.0-41-g6a1e58c),,vim navigation in tmux
start,vim-which-key,(remotes/origin/HEAD),,Reminds you the zillions of shortcuts you're not using
start,vimwiki,(v2.5),,using this for notes maybe migrate to zettlr or obsidian
